5 Functional Programming – Reproducible Polyglot Data Science
…
summarise_variable <- function(data, var) {
  data %>%
    summarise(
      n = n(),
      mean = mean({{ var }}, na.rm = TRUE),
      sd = sd({{ var }}, na.rm = TRUE)
    )
}

starwars %>%
  group_by(species) %>%
  summarise_variable(height)

# A tibble: 38 × 4
   species       n  mean    sd
   <chr>     <int> <dbl> <dbl>
 1 Aleena        1   79   NA  
 2 Besalisk      1  198   NA  
 3 Cerean        1  198   NA  
 4 Chagrian      1  196   NA  
 5 Clawdite      1  168   NA  
 6 Droid         6  131.  49.1
 7 Dug           1  112   NA  
 8 Ewok          1   88   NA  
 9 Geonosian     1  183   NA  
10 Gungan        3  209.  14.2
# ℹ 28 more rows
…
